[
    {
      "model": "app.database.Address",
      "records": [
        {
          "id": 1,
          "address1": "123 Evergreen Terrace",
          "address2": null,
          "city": "Springfield",
          "state": "MA",
          "zip_code": "01089-0000"
        },
        {
          "id": 2,
          "address1": "1 Patriot Pl",
          "address2": null,
          "city": "Foxborough",
          "state": "MA",
          "zip_code": "02035-1388"
        }
      ]
    }
  ]
  